module self-destruct.zip

go 1.21

require (
	github.com/jessevdk/go-flags v1.6.1
	github.com/labstack/echo-contrib v0.17.1
	github.com/labstack/echo/v4 v4.12.0
	github.com/labstack/gommon v0.4.2
	github.com/prometheus/client_golang v1.20.2
	golang.org/x/sync v0.8.0
)

require (
	github.com/beorn7/perks v1.0.1 // indirect
	github.com/cespare/xxhash/v2 v2.3.0 // indirect
	github.com/golang-jwt/jwt v3.2.2+incompatible // indirect
	github.com/klauspost/compress v1.17.9 // indirect
	github.com/mattn/go-colorable v0.1.13 // indirect
	github.com/mattn/go-isatty v0.0.20 // indirect
	github.com/munnerz/goautoneg v0.0.0-20191010083416-a7dc8b61c822 // indirect
	github.com/prometheus/client_model v0.6.1 // indirect
	github.com/prometheus/common v0.55.0 // indirect
	github.com/prometheus/procfs v0.15.1 // indirect
	github.com/valyala/bytebufferpool v1.0.0 // indirect
	github.com/valyala/fasttemplate v1.2.2 // indirect
	golang.org/x/crypto v0.24.0 // indirect
	golang.org/x/net v0.26.0 // indirect
	golang.org/x/sys v0.22.0 // indirect
	golang.org/x/text v0.16.0 // indirect
	golang.org/x/time v0.5.0 // indirect
	google.golang.org/protobuf v1.34.2 // indirect
)
