[
    "happy",
    "sad",
    "angry",
    "peaceful",
    "excited",
    "calm",
    "energetic",
    "relaxed",
    "enthusiastic",
    "confident",
    "curious",
    "creative",
    "brilliant",
    "charming",
    "grateful",
    "playful",
    "determined",
    "sincere",
    "generous",
    "ambitious",
    "adventurous",
    "patient",
    "kind",
    "thoughtful",
    "cheerful",
    "brave",
    "timid",
    "optimistic",
    "pessimistic",
    "loyal",
    "friendly",
    "compassionate",
    "empathetic",
    "gloomy",
    "mischievous",
    "honest",
    "humble",
    "intelligent",
    "wise",
    "silly",
    "witty",
    "eager",
    "fierce",
    "gentle",
    "proud",
    "ashamed",
    "jealous",
    "grumpy",
    "annoyed",
    "bored",
    "ecstatic",
    "frustrated",
    "overwhelmed",
    "nervous",
    "scared",
    "terrified",
    "hopeful",
    "determined",
    "resourceful",
    "dedicated",
    "trustworthy",
    "reliable",
    "spontaneous",
    "cautious",
    "sensitive",
    "sociable",
    "gregarious",
    "reclusive",
    "inquisitive",
    "meticulous",
    "innovative",
    "diligent",
    "persistent",
    "resilient",
    "passionate",
    "enthusiastic",
    "zealous",
    "charismatic",
    "supportive",
    "considerate",
    "perceptive",
    "insightful",
    "conscientious",
    "respectful",
    "modest",
    "disciplined",
    "adaptable",
    "versatile",
    "courageous",
    "fearless",
    "serene",
    "tranquil",
    "jovial",
    "jubilant",
    "melancholic",
    "nostalgic",
    "wistful",
    "content",
    "satisfied",
    "elated",
    "apprehensive",
    "vigilant",
    "studious",
    "pragmatic",
    "idealistic",
    "romantic",
    "ambivalent",
    "skeptical",
    "stoic",
    "tolerant",
    "forgiving",
    "lenient",
    "diplomatic",
    "tactful",
    "assertive",
    "proactive",
    "inspirational",
    "motivated",
    "focused",
    "attentive",
    "punctual",
    "observant",
    "analytic",
    "strategic",
    "decisive",
    "imaginative",
    "visionary",
    "open-minded",
    "progressive",
    "independent",
    "self-sufficient",
    "autonomous",
    "driven",
    "ambitious"
]
