[
    "cat",
    "dog",
    "house",
    "car",
    "book",
    "flower",
    "tree",
    "computer",
    "phone",
    "friend",
    "family",
    "city",
    "ocean",
    "mountain",
    "food",
    "music",
    "sun",
    "moon",
    "star",
    "child",
    "job",
    "school",
    "money",
    "time",
    "airplane",
    "bicycle",
    "river",
    "forest",
    "desert",
    "planet",
    "galaxy",
    "universe",
    "language",
    "story",
    "poem",
    "painting",
    "sculpture",
    "movie",
    "song",
    "dance",
    "festival",
    "holiday",
    "garden",
    "bridge",
    "road",
    "train",
    "ship",
    "bus",
    "library",
    "museum",
    "theater",
    "park",
    "beach",
    "island",
    "continent",
    "country",
    "nation",
    "village",
    "neighborhood",
    "apartment",
    "office",
    "restaurant",
    "cafe",
    "shop",
    "market",
    "hospital",
    "clinic",
    "pharmacy",
    "doctor",
    "nurse",
    "teacher",
    "student",
    "engineer",
    "artist",
    "writer",
    "musician",
    "actor",
    "director",
    "producer",
    "athlete",
    "coach",
    "team",
    "game",
    "sport",
    "exercise",
    "work",
    "vacation",
    "hobby",
    "project",
    "task",
    "goal",
    "dream",
    "idea",
    "thought",
    "feeling",
    "emotion",
    "memory",
    "experience",
    "journey",
    "trip",
    "adventure",
    "challenge",
    "opportunity",
    "success",
    "failure",
    "mistake",
    "lesson",
    "skill",
    "talent",
    "strength",
    "weakness",
    "habit",
    "routine",
    "custom",
    "tradition",
    "belief",
    "value",
    "principle",
    "law",
    "rule",
    "regulation",
    "policy",
    "decision",
    "choice",
    "option",
    "preference",
    "liking",
    "dislike",
    "interest",
    "passion",
    "enthusiasm",
    "energy",
    "power",
    "force",
    "motion",
    "movement",
    "change",
    "transformation",
    "growth",
    "development",
    "progress",
    "advancement",
    "innovation",
    "invention",
    "discovery",
    "exploration",
    "research",
    "study",
    "analysis",
    "investigation",
    "experiment",
    "test",
    "trial",
    "proof",
    "evidence",
    "fact",
    "truth",
    "reality",
    "fiction",
    "fantasy",
    "imagination",
    "creativity",
    "design",
    "art",
    "craft",
    "skill",
    "technique",
    "method",
    "process",
    "procedure",
    "system",
    "structure",
    "framework",
    "pattern",
    "model",
    "example",
    "instance",
    "case",
    "scenario",
    "situation",
    "condition",
    "state",
    "status",
    "level",
    "degree",
    "grade",
    "rank",
    "position",
    "location",
    "place",
    "area",
    "region",
    "zone",
    "territory",
    "district",
    "sector",
    "field",
    "domain",
    "category",
    "class",
    "type",
    "kind",
    "sort",
    "group",
    "cluster",
    "collection",
    "set",
    "series",
    "sequence",
    "chain",
    "network",
    "web",
    "system",
    "machine",
    "device",
    "tool",
    "instrument",
    "equipment",
    "apparatus",
    "material",
    "substance",
    "element",
    "component",
    "part",
    "piece",
    "fragment",
    "section",
    "segment",
    "portion",
    "slice",
    "bit",
    "chip",
    "flake",
    "speck",
    "grain",
    "particle",
    "atom",
    "molecule",
    "cell",
    "organ",
    "body",
    "organism",
    "living",
    "creature",
    "entity",
    "being",
    "person",
    "individual",
    "human",
    "life",
    "existence",
    "reality",
    "universe",
    "world",
    "earth",
    "nature",
    "environment",
    "ecosystem",
    "habitat",
    "wildlife",
    "flora",
    "fauna",
    "species",
    "genus",
    "family",
    "order",
    "class",
    "phylum",
    "kingdom"
]
